{
  "paragraphs": [
    {
      "text": "%md\n### 1. Poprve, nacteme datasety pomoci metody read.",
      "user": "anonymous",
      "dateUpdated": "2020-12-04 15:19:45.366",
      "config": {
        "colWidth": 12.0,
        "fontSize": 9.0,
        "enabled": true,
        "results": {},
        "editorSetting": {
          "language": "markdown",
          "editOnDblClick": true,
          "completionKey": "TAB",
          "completionSupport": false
        },
        "editorMode": "ace/mode/markdown",
        "editorHide": true,
        "tableHide": false
      },
      "settings": {
        "params": {},
        "forms": {}
      },
      "results": {
        "code": "SUCCESS",
        "msg": [
          {
            "type": "HTML",
            "data": "\u003cdiv class\u003d\"markdown-body\"\u003e\n\u003ch3\u003e1. Poprve, nacteme datasety pomoci metody read.\u003c/h3\u003e\n\u003c/div\u003e"
          }
        ]
      },
      "apps": [],
      "jobName": "paragraph_1607094640179_1780389003",
      "id": "20201204-151040_1645637781",
      "dateCreated": "2020-12-04 15:10:40.180",
      "dateStarted": "2020-12-04 15:19:45.366",
      "dateFinished": "2020-12-04 15:19:45.371",
      "status": "FINISHED",
      "progressUpdateIntervalMs": 500
    },
    {
      "text": "val df_anime \u003d spark.read.format(\"csv\")\n  .option(\"sep\", \",\")\n  .option(\"inferSchema\", \"true\")\n  .option(\"header\", \"true\")\n  .load(\"animes.csv\")\n  \nval df_prof \u003d spark.read.format(\"csv\")\n  .option(\"sep\", \",\")\n  .option(\"inferSchema\", \"true\")\n  .option(\"header\", \"true\")\n  .load(\"profiles.csv\")\n  \nval df_rev \u003d spark.read.format(\"csv\")\n  .option(\"sep\", \",\")\n  .option(\"inferSchema\", \"true\")\n  .option(\"header\", \"true\")\n  .load(\"reviews.csv\")",
      "user": "anonymous",
      "dateUpdated": "2020-12-10 15:25:36.286",
      "config": {
        "colWidth": 12.0,
        "fontSize": 9.0,
        "enabled": true,
        "results": {},
        "editorSetting": {
          "language": "scala",
          "editOnDblClick": false,
          "completionKey": "TAB",
          "completionSupport": true
        },
        "editorMode": "ace/mode/scala"
      },
      "settings": {
        "params": {},
        "forms": {}
      },
      "results": {
        "code": "SUCCESS",
        "msg": [
          {
            "type": "TEXT",
            "data": "df_anime: org.apache.spark.sql.DataFrame \u003d [uid: int, title: string ... 8 more fields]\ndf_prof: org.apache.spark.sql.DataFrame \u003d [profile: string, gender: string ... 2 more fields]\ndf_rev: org.apache.spark.sql.DataFrame \u003d [uid: int, profile: string ... 8 more fields]\n"
          }
        ]
      },
      "runtimeInfos": {
        "jobUrl": {
          "propertyName": "jobUrl",
          "label": "SPARK JOB",
          "tooltip": "View in Spark web UI",
          "group": "spark",
          "values": [
            "http://ad4f03ac44b7:4040/jobs/job?id\u003d0",
            "http://ad4f03ac44b7:4040/jobs/job?id\u003d1",
            "http://ad4f03ac44b7:4040/jobs/job?id\u003d2",
            "http://ad4f03ac44b7:4040/jobs/job?id\u003d3",
            "http://ad4f03ac44b7:4040/jobs/job?id\u003d4",
            "http://ad4f03ac44b7:4040/jobs/job?id\u003d5"
          ],
          "interpreterSettingId": "spark"
        }
      },
      "apps": [],
      "jobName": "paragraph_1606625832712_1374937721",
      "id": "20201129-045712_2133130650",
      "dateCreated": "2020-11-29 04:57:12.712",
      "dateStarted": "2020-12-10 15:25:36.485",
      "dateFinished": "2020-12-10 15:25:57.103",
      "status": "FINISHED",
      "progressUpdateIntervalMs": 500
    },
    {
      "text": "df_rev.distinct().count()",
      "user": "anonymous",
      "dateUpdated": "2020-12-05 17:54:32.889",
      "config": {
        "colWidth": 12.0,
        "fontSize": 9.0,
        "enabled": true,
        "results": {},
        "editorSetting": {
          "language": "scala",
          "editOnDblClick": false,
          "completionKey": "TAB",
          "completionSupport": true
        },
        "editorMode": "ace/mode/scala"
      },
      "settings": {
        "params": {},
        "forms": {}
      },
      "results": {
        "code": "SUCCESS",
        "msg": [
          {
            "type": "TEXT",
            "data": "res2: Long \u003d 130519\n"
          }
        ]
      },
      "apps": [],
      "jobName": "paragraph_1607098682707_-347836180",
      "id": "20201204-161802_1784767437",
      "dateCreated": "2020-12-04 16:18:02.707",
      "dateStarted": "2020-12-05 17:54:32.965",
      "dateFinished": "2020-12-05 17:54:34.962",
      "status": "FINISHED",
      "progressUpdateIntervalMs": 500
    },
    {
      "text": "df_anime.show()\ndf_prof.show()\ndf_rev.show()",
      "user": "anonymous",
      "dateUpdated": "2020-11-30 15:38:01.872",
      "config": {
        "colWidth": 12.0,
        "fontSize": 9.0,
        "enabled": true,
        "results": {},
        "editorSetting": {
          "language": "scala",
          "editOnDblClick": false,
          "completionKey": "TAB",
          "completionSupport": true
        },
        "editorMode": "ace/mode/scala"
      },
      "settings": {
        "params": {},
        "forms": {}
      },
      "results": {
        "code": "SUCCESS",
        "msg": [
          {
            "type": "TEXT",
            "data": "+-----+--------------------+--------------------+----------+-------------------+--------+---------+----------+------+-----+\n|  uid|               title|               genre|      from|                 to|episodes|  members|popularity|ranked|score|\n+-----+--------------------+--------------------+----------+-------------------+--------+---------+----------+------+-----+\n|28891|Haikyuu!! Second ...|Comedy,Sports,Dra...|2015-10-04|2016-03-27 00:00:00|    25.0| 489888.0|       141|  25.0| 8.82|\n|23273|Shigatsu wa Kimi ...|Drama,Music,Roman...|2014-10-10|2015-03-20 00:00:00|    22.0| 995473.0|        28|  24.0| 8.83|\n|34599|       Made in Abyss|Sci-Fi,Adventure,...|2017-07-07|2017-09-29 00:00:00|    13.0| 581663.0|        98|  23.0| 8.83|\n| 5114|Fullmetal Alchemi...|Action,Military,A...|2009-04-05|2010-07-04 00:00:00|    64.0|1615084.0|         4|   1.0| 9.23|\n|31758|Kizumonogatari II...|Action,Mystery,Su...|2017-01-06|2017-01-06 00:00:00|     1.0| 214621.0|       502|  22.0| 8.83|\n|37510|   Mob Psycho 100 II|Action,Slice of L...|2019-01-07|2019-04-01 00:00:00|    13.0| 442310.0|       176|  21.0| 8.89|\n|  199|Sen to Chihiro no...|Adventure,Superna...|2001-07-20|2001-07-20 00:00:00|     1.0| 913212.0|        40|  20.0|  8.9|\n|38000|    Kimetsu no Yaiba|Action,Demons,His...|2019-04-06|2019-09-28 00:00:00|    26.0| 575037.0|       106|  19.0| 8.92|\n|35247|Owarimonogatari 2...|Mystery,Comedy,Su...|2017-08-12|2017-08-13 00:00:00|     7.0| 189944.0|       573|  18.0| 8.93|\n| 2904|Code Geass: Hangy...|Action,Military,S...|2008-04-06|2008-09-28 00:00:00|    25.0| 992196.0|        27|  17.0| 8.93|\n|32935|Haikyuu!!: Karasu...|Comedy,Sports,Dra...|2016-10-08|2016-12-10 00:00:00|    10.0| 395375.0|       223|  16.0| 8.94|\n|34096|            Gintama.|Action,Comedy,His...|2017-01-09|2017-03-27 00:00:00|    12.0| 139309.0|       800|  15.0| 8.94|\n|15335|Gintama Movie 2: ...|Action,Sci-Fi,Com...|2013-07-06|2013-07-06 00:00:00|     1.0| 135232.0|       833|  14.0| 8.95|\n|  918|             Gintama|Action,Comedy,His...|2006-04-04|2010-03-25 00:00:00|   201.0| 579150.0|        97|  13.0| 8.97|\n| 4181|Clannad: After Story|Slice of Life,Com...|2008-10-03|2009-03-27 00:00:00|    24.0| 740101.0|        64|  12.0| 8.97|\n|15417| Gintama\u0027: Enchousen|Action,Comedy,His...|2012-10-04|2013-03-28 00:00:00|    13.0| 166446.0|       667|  11.0| 8.98|\n|30276|       One Punch Man|Action,Sci-Fi,Com...|2015-10-05|2015-12-21 00:00:00|    12.0|1475219.0|         5|  50.0| 8.68|\n|16664|Kaguya-hime no Mo...|  Fantasy,Historical|2013-11-23|2013-11-23 00:00:00|     1.0|  99563.0|      1106| 250.0| 8.28|\n| 4672|Koukaku Kidoutai 2.0|Action,Sci-Fi,Pol...|2008-07-12|2008-07-12 00:00:00|     1.0|  72331.0|      1457| 500.0| 8.06|\n| 8038|Nodame Cantabile:...|Comedy,Josei,Musi...|2010-04-07|2010-04-07 00:00:00|     1.0|  33038.0|      2428| 750.0| 7.88|\n+-----+--------------------+--------------------+----------+-------------------+--------+---------+----------+------+-----+\nonly showing top 20 rows\n\n+--------------+------+---------+---------------+\n|       profile|gender| birthday|favorites_anime|\n+--------------+------+---------+---------------+\n|DesolatePsyche|  Male|10/2/1994|          33352|\n|DesolatePsyche|  Male|10/2/1994|          25013|\n|DesolatePsyche|  Male|10/2/1994|           5530|\n|DesolatePsyche|  Male|10/2/1994|          33674|\n|DesolatePsyche|  Male|10/2/1994|           1482|\n|DesolatePsyche|  Male|10/2/1994|            269|\n|DesolatePsyche|  Male|10/2/1994|          18245|\n|DesolatePsyche|  Male|10/2/1994|           2904|\n|DesolatePsyche|  Male|10/2/1994|          27899|\n|DesolatePsyche|  Male|10/2/1994|          17074|\n|DesolatePsyche|  Male|10/2/1994|          12291|\n|DesolatePsyche|  Male|10/2/1994|            226|\n|DesolatePsyche|  Male|10/2/1994|          28851|\n|DesolatePsyche|  Male|10/2/1994|           8525|\n|DesolatePsyche|  Male|10/2/1994|           6594|\n|DesolatePsyche|  Male|10/2/1994|           4981|\n|DesolatePsyche|  Male|10/2/1994|           1698|\n|DesolatePsyche|  Male|10/2/1994|            457|\n|DesolatePsyche|  Male|10/2/1994|            235|\n|DesolatePsyche|  Male|10/2/1994|          34618|\n+--------------+------+---------+---------------+\nonly showing top 20 rows\n\n+------+---------------+---------+-----+-------+-----+---------+-----+---------+---------+\n|   uid|        profile|anime_uid|total|Overall|Story|Animation|Sound|Character|Enjoyment|\n+------+---------------+---------+-----+-------+-----+---------+-----+---------+---------+\n|255938| DesolatePsyche|    34096|    8|      8|    8|        8|   10|        9|        8|\n|259117|      baekbeans|    34599|   10|     10|   10|       10|   10|       10|       10|\n|253664|           skrn|    28891|    7|      7|    7|        9|    8|        8|        8|\n|  8254|   edgewalker00|     2904|    9|      9|    9|        9|   10|       10|        9|\n|291149|aManOfCulture99|     4181|   10|     10|   10|        8|    9|       10|       10|\n| 10046|          eneri|     2904|   10|     10|    9|       10|   10|       10|       10|\n|247454| Waffle_Empress|    16664|    6|      6|    6|        9|    8|        6|        6|\n|140903|   NIGGER_BONER|     2904|    8|      8|    7|        9|    0|        0|        9|\n| 23791|         jchang|     2904|   10|     10|   10|        9|   10|       10|       10|\n| 25115|    shadowsplat|     4181|    4|      4|    8|        9|    8|        5|        4|\n|116775|   angelsreview|     4672|    8|      8|    6|        7|    7|        6|        7|\n|280224| CalebTheMenace|     4181|    9|      9|   10|        8|    9|       10|       10|\n|181043|        Kiethol|     4181|   10|     10|   10|        8|    9|        9|       10|\n|259091|          Eanki|    34599|    8|      8|    0|        0|    0|        0|        0|\n|259195|      NekoKyupi|    34599|    9|      9|    9|       10|    9|        9|       10|\n|210404|          12sed|     5114|   10|     10|   10|        9|   10|       10|       10|\n|262977|  OVERPOWERED99|    30276|    8|      8|    7|       10|    8|        8|        8|\n|262994|  MrAnimeCrunch|    30276|   10|     10|   10|       10|   10|       10|       10|\n|214997|    JoJo_Stalin|    30276|    7|      7|    7|        8|    7|        8|        9|\n|173551|        Kaishuu|     4181|   10|     10|   10|        9|   10|       10|       10|\n+------+---------------+---------+-----+-------+-----+---------+-----+---------+---------+\nonly showing top 20 rows\n\n"
          }
        ]
      },
      "apps": [],
      "jobName": "paragraph_1606625899125_1923724137",
      "id": "20201129-045819_1362948614",
      "dateCreated": "2020-11-29 04:58:19.125",
      "dateStarted": "2020-11-30 15:38:01.908",
      "dateFinished": "2020-11-30 15:38:02.482",
      "status": "FINISHED",
      "progressUpdateIntervalMs": 500
    },
    {
      "text": "%md\n### 2. Aggregace c.1, ve ktere bude agregovat data z jednoho původního datasetu.\nV dane aggregaci pouzivame dateset z info o anime. Poprve, vybereme vsichni unikatni zaznamy z datasetu, \nudelame groupBy podle roku tvorby, a pak udelame aggregaci, ktera pro kazdy sloupec, kde je ciselna metrika, \nvypocte stredni a maximalni hodnotu.\nTakze vysledkem je seznam roku, ve kterych bylo produkovan alespon jeden film nebo serial, stredni a maximalni pocet episodu,\npopularita, pocet uzivatelu v komunite, hodnoceni.",
      "user": "anonymous",
      "dateUpdated": "2020-12-04 15:19:36.300",
      "config": {
        "colWidth": 12.0,
        "fontSize": 9.0,
        "enabled": true,
        "results": {},
        "editorSetting": {
          "language": "markdown",
          "editOnDblClick": true,
          "completionKey": "TAB",
          "completionSupport": false
        },
        "editorMode": "ace/mode/markdown",
        "editorHide": true,
        "tableHide": false
      },
      "settings": {
        "params": {},
        "forms": {}
      },
      "results": {
        "code": "SUCCESS",
        "msg": [
          {
            "type": "HTML",
            "data": "\u003cdiv class\u003d\"markdown-body\"\u003e\n\u003ch3\u003e2. Aggregace c.1, ve ktere bude agregovat data z jednoho původního datasetu.\u003c/h3\u003e\n\u003cp\u003eV dane aggregaci pouzivame dateset z info o anime. Poprve, vybereme vsichni unikatni zaznamy z datasetu,\u003cbr/\u003eudelame groupBy podle roku tvorby, a pak udelame aggregaci, ktera pro kazdy sloupec, kde je ciselna metrika,\u003cbr/\u003evypocte stredni a maximalni hodnotu.\u003cbr/\u003eTakze vysledkem je seznam roku, ve kterych bylo produkovan alespon jeden film nebo serial, stredni a maximalni pocet episodu,\u003cbr/\u003epopularita, pocet uzivatelu v komunite, hodnoceni.\u003c/p\u003e\n\u003c/div\u003e"
          }
        ]
      },
      "apps": [],
      "jobName": "paragraph_1607094708295_-1460990654",
      "id": "20201204-151148_1630784603",
      "dateCreated": "2020-12-04 15:11:48.295",
      "dateStarted": "2020-12-04 15:19:36.299",
      "dateFinished": "2020-12-04 15:19:36.312",
      "status": "FINISHED",
      "progressUpdateIntervalMs": 500
    },
    {
      "text": "import org.apache.spark.sql.functions._\n\nval agg1 \u003d df_anime.distinct().groupBy(year($\"from\").alias(\"year\")).agg(\n    mean(\"episodes\").as(\"episodes_mean\"), max(\"episodes\").as(\"episodes_max\"),\n    mean(\"popularity\").as(\"popularity_mean\"), max(\"popularity\").as(\"popularity_mean\"),\n    sum(\"members\").as(\"members_total\"),  mean(\"score\").as(\"score_mean\"), max(\"score\").as(\"score_max\")\n).sort(\"year\").where(col(\"year\").isNotNull)\n\n// val agg1_f \u003d agg1.where(agg1(\"year\").isNotNull)\n\nagg1.show()",
      "user": "anonymous",
      "dateUpdated": "2020-12-05 18:24:47.977",
      "config": {
        "colWidth": 12.0,
        "fontSize": 9.0,
        "enabled": true,
        "results": {},
        "editorSetting": {
          "language": "scala",
          "editOnDblClick": false,
          "completionKey": "TAB",
          "completionSupport": true
        },
        "editorMode": "ace/mode/scala"
      },
      "settings": {
        "params": {},
        "forms": {}
      },
      "results": {
        "code": "SUCCESS",
        "msg": [
          {
            "type": "TEXT",
            "data": "+----+------------------+------------+------------------+---------------+-------------+------------------+---------+\n|year|     episodes_mean|episodes_max|   popularity_mean|popularity_mean|members_total|        score_mean|score_max|\n+----+------------------+------------+------------------+---------------+-------------+------------------+---------+\n|1917|               1.0|         1.0|           11984.5|          13573|       9074.0|5.8812500000000005|     6.57|\n|1918|               1.0|         1.0|11893.285714285714|          13282|       3242.0| 5.935714285714285|     6.46|\n|1924|               1.0|         1.0|12752.333333333334|          14637|       1077.0| 5.503333333333333|     6.15|\n|1925|               1.0|         1.0|12761.666666666666|          14666|       1666.0| 5.576666666666667|     6.88|\n|1926|               1.0|         1.0|12239.666666666666|          15037|       2624.0| 5.673333333333333|     7.31|\n|1927|               1.0|         1.0|          12032.25|          13536|       1449.0| 5.227499999999999|     5.77|\n|1928|               1.0|         1.0|           11856.0|          15576|       4028.0|            5.1525|     5.84|\n|1929|               1.0|         1.0|11463.857142857143|          15605|       5323.0| 5.407142857142857|     6.07|\n|1930|               1.0|         1.0|           11152.5|          13094|       3890.0|              5.27|     5.66|\n|1931|               1.0|         1.0| 11055.59090909091|          14898|      16827.0| 5.107727272727273|     5.67|\n|1932|1.1666666666666667|         3.0|          12191.25|          14670|       5078.0|            5.0675|     5.96|\n|1933|               1.0|         1.0|          11479.75|          14742|       7872.0|          5.154375|     5.79|\n|1934|               1.0|         1.0|11346.833333333334|          13768|       6449.0|4.9366666666666665|     5.72|\n|1935|               1.0|         1.0|         11416.875|          14651|       8488.0|           4.82875|     5.68|\n|1936|               1.0|         1.0| 10933.90909090909|          13044|       6199.0| 4.942727272727272|     5.42|\n|1937|               1.0|         1.0|           12325.5|          12926|        589.0|              5.43|     5.47|\n|1938|               1.0|         1.0|12198.666666666666|          13670|       1211.0| 5.573333333333333|     6.54|\n|1939|               1.0|         1.0|          12058.75|          15222|       1773.0| 5.547499999999999|     6.44|\n|1940|               1.0|         1.0|           11810.5|          13874|       1634.0| 5.385000000000001|     6.13|\n|1941|               1.0|         1.0|           11595.6|          13817|       2320.0|             5.404|     5.66|\n+----+------------------+------------+------------------+---------------+-------------+------------------+---------+\nonly showing top 20 rows\n\nimport org.apache.spark.sql.functions._\nagg1: org.apache.spark.sql.Dataset[org.apache.spark.sql.Row] \u003d [year: int, episodes_mean: double ... 6 more fields]\n"
          }
        ]
      },
      "apps": [],
      "jobName": "paragraph_1606625959976_1894539094",
      "id": "20201129-045919_1228478247",
      "dateCreated": "2020-11-29 04:59:19.976",
      "dateStarted": "2020-12-05 18:24:48.086",
      "dateFinished": "2020-12-05 18:24:54.338",
      "status": "FINISHED",
      "progressUpdateIntervalMs": 500
    },
    {
      "text": "%md\n### 2. Aggregace c.2, ve ktere budeme agregovat data ze dvou původních datasetů najednou.\nPoprve, jsem udelal join datasetu z info o hodnocenich anime a profily uzivatelu a vezmeme vsechny zaznamy bez duplicit.\nDale udelame konvertaci sloupce \"birthday\" ve datetime format pomoci metody to_date. Dale udelame groupBy podle anime id, roku narozeni a pohlavi,\na taky pro kazdy cisleny sloupec udelame aggregaci ve ktere spocteme strdni hodnotu. Na konci provedeme trideni podle roku a pohlavi.\nJako vysledek jsem dostal dataset, ve kterem pro kazde anime mame strdni hodnoceni ve vsech kategoriich podle roku narozeni a pohlavi uzivatele.",
      "user": "anonymous",
      "dateUpdated": "2020-12-04 15:33:12.786",
      "config": {
        "colWidth": 12.0,
        "fontSize": 9.0,
        "enabled": true,
        "results": {},
        "editorSetting": {
          "language": "markdown",
          "editOnDblClick": true,
          "completionKey": "TAB",
          "completionSupport": false
        },
        "editorMode": "ace/mode/markdown",
        "editorHide": true,
        "tableHide": false
      },
      "settings": {
        "params": {},
        "forms": {}
      },
      "results": {
        "code": "SUCCESS",
        "msg": [
          {
            "type": "HTML",
            "data": "\u003cdiv class\u003d\"markdown-body\"\u003e\n\u003ch3\u003e2. Aggregace c.2, ve ktere budeme agregovat data ze dvou původních datasetů najednou.\u003c/h3\u003e\n\u003cp\u003ePoprve, jsem udelal join datasetu z info o hodnocenich anime a profily uzivatelu a vezmeme vsechny zaznamy bez duplicit.\u003cbr/\u003eDale udelame konvertaci sloupce \u0026ldquo;birthday\u0026rdquo; ve datetime format pomoci metody to_date. Dale udelame groupBy podle anime id, roku narozeni a pohlavi,\u003cbr/\u003ea taky pro kazdy cisleny sloupec udelame aggregaci ve ktere spocteme strdni hodnotu. Na konci provedeme trideni podle roku a pohlavi.\u003cbr/\u003eJako vysledek jsem dostal dataset, ve kterem pro kazde anime mame strdni hodnoceni ve vsech kategoriich podle roku narozeni a pohlavi uzivatele.\u003c/p\u003e\n\u003c/div\u003e"
          }
        ]
      },
      "apps": [],
      "jobName": "paragraph_1607095224242_-1254433877",
      "id": "20201204-152024_1196968340",
      "dateCreated": "2020-12-04 15:20:24.242",
      "dateStarted": "2020-12-04 15:33:12.787",
      "dateFinished": "2020-12-04 15:33:12.797",
      "status": "FINISHED",
      "progressUpdateIntervalMs": 500
    },
    {
      "text": "\nval agg2 \u003d df_rev.join(df_prof.select($\"profile\", $\"gender\", $\"birthday\"), df_prof(\"profile\") \u003d\u003d\u003d df_rev(\"profile\"), \"inner\").drop(df_prof(\"profile\")).distinct()\n\nval agg2_1 \u003d agg2.withColumn(\"birthday\", to_date($\"birthday\", \"MM/dd/yyyy\")).filter(col(\"birthday\").isNotNull).filter(col(\"gender\").isNotNull)\n\nval agg2_2 \u003d agg2_1.groupBy($\"anime_uid\", year($\"birthday\").alias(\"birth_year\"), $\"gender\").agg(\n    mean(\"total\").as(\"total_mean\"), mean(\"Overall\").as(\"overall_mean\"),  mean(\"Story\").as(\"story_mean\"),\n    mean(\"Animation\").as(\"animation_mean\"),  mean(\"Sound\").as(\"sound_mean\"),  mean(\"Character\").as(\"character_mean\"),  \n    mean(\"Enjoyment\").as(\"enjoyment_mean\")\n).sort(\"birth_year\", \"gender\")\n\nagg2_2.show()",
      "user": "anonymous",
      "dateUpdated": "2020-12-04 15:20:24.166",
      "config": {
        "colWidth": 12.0,
        "fontSize": 9.0,
        "enabled": true,
        "results": {},
        "editorSetting": {
          "language": "scala",
          "editOnDblClick": false,
          "completionKey": "TAB",
          "completionSupport": true
        },
        "editorMode": "ace/mode/scala"
      },
      "settings": {
        "params": {},
        "forms": {}
      },
      "results": {
        "code": "SUCCESS",
        "msg": [
          {
            "type": "TEXT",
            "data": "+---------+----------+------+----------+------------+----------+--------------+----------+--------------+--------------+\n|anime_uid|birth_year|gender|total_mean|overall_mean|story_mean|animation_mean|sound_mean|character_mean|enjoyment_mean|\n+---------+----------+------+----------+------------+----------+--------------+----------+--------------+--------------+\n|     6973|      1930|Female|       3.0|         3.0|       3.0|           7.0|       7.0|           5.0|           2.0|\n|      322|      1930|Female|       7.5|         7.5|       7.5|           8.5|       8.5|           6.5|           8.0|\n|    32729|      1930|Female|      10.0|        10.0|      10.0|           9.0|       9.0|           9.0|          10.0|\n|     1281|      1930|Female|       4.0|         4.0|       3.0|           1.0|       4.0|           3.0|          10.0|\n|     3655|      1930|Female|       5.0|         5.0|       3.0|           9.0|       8.0|           4.0|           4.0|\n|    14753|      1930|Female|       9.0|         9.0|       9.0|           7.0|       9.0|           9.0|          10.0|\n|     4898|      1930|Female|       8.0|         8.0|       9.0|           9.0|       9.0|           9.0|           9.0|\n|    22199|      1930|Female|       3.0|         3.0|       3.0|           9.0|       5.0|           7.0|           3.0|\n|     1735|      1930|Female|      10.0|        10.0|      10.0|           8.0|       8.0|          10.0|          10.0|\n|      853|      1930|Female|       8.0|         8.0|       8.0|           9.0|       7.0|           9.0|           9.0|\n|    22145|      1930|Female|       9.0|         9.0|       9.0|          10.0|      10.0|           9.0|           9.0|\n|    28735|      1930|Female|      10.0|        10.0|      10.0|           9.0|       9.0|          10.0|          10.0|\n|    34537|      1930|Female|      10.0|        10.0|       9.0|          10.0|      10.0|          10.0|          10.0|\n|     6880|      1930|Female|       3.0|         3.0|       8.0|           6.0|       7.0|           1.0|           3.0|\n|      934|      1930|Female|       9.0|         9.0|      10.0|           8.0|       8.0|           9.0|          10.0|\n|      228|      1930|Female|      10.0|        10.0|       9.0|          10.0|      10.0|          10.0|           9.0|\n|     8129|      1930|Female|      10.0|        10.0|       9.0|           9.0|      10.0|          10.0|          10.0|\n|       79|      1930|Female|       2.0|         2.0|       1.0|           8.0|       8.0|           2.0|           1.0|\n|    19815|      1930|Female|      10.0|        10.0|      10.0|          10.0|      10.0|          10.0|          10.0|\n|     2025|      1930|Female|       7.0|         7.0|       7.0|           7.0|       6.0|           7.0|           7.0|\n+---------+----------+------+----------+------------+----------+--------------+----------+--------------+--------------+\nonly showing top 20 rows\n\nagg2: org.apache.spark.sql.Dataset[org.apache.spark.sql.Row] \u003d [uid: int, profile: string ... 10 more fields]\nagg2_1: org.apache.spark.sql.Dataset[org.apache.spark.sql.Row] \u003d [uid: int, profile: string ... 10 more fields]\nagg2_2: org.apache.spark.sql.Dataset[org.apache.spark.sql.Row] \u003d [anime_uid: int, birth_year: int ... 8 more fields]\n"
          }
        ]
      },
      "apps": [],
      "jobName": "paragraph_1606650748225_1932490612",
      "id": "20201129-115228_2076637249",
      "dateCreated": "2020-11-29 11:52:28.225",
      "dateStarted": "2020-11-29 12:26:15.714",
      "dateFinished": "2020-11-29 12:26:23.638",
      "status": "FINISHED",
      "progressUpdateIntervalMs": 500
    },
    {
      "text": "%md\n### 3. Aggregace c.3, ve ktere bude agregovat data ze dvou datasetů najednou, z čehož jeden bude výsledkem předchozí \nPoprve, vezmeme jako novy dataframe sloupce \"uid\" a \"genre\" datasetu z info o anime.\nDale udelame join vysledneho dataframe y predchozi aggregace a dataframe z predchoziho bodu, vezmeme unikatni zaznamy a udelame split a cast v array sloupce, ve kterem se nachazi kolekce nazev ganru.\nDale udelame novy sploupec zanru, udelav rozdeleni pomoci metody explode. Dale udelame grouBy podle zanru, pohlavi a roku narozeni. V aggregaci spocteme strdni hodnoceni podle kategorii pro kazdou skupinu.\nJako vysledek mame dataset, ve kterem se nachazi informace o tom jake prumerne hodnoceni ma kazda zanra od uzivately, seskupine podle roku narozeni a pohlavi.",
      "user": "anonymous",
      "dateUpdated": "2020-12-04 15:35:39.584",
      "config": {
        "colWidth": 12.0,
        "fontSize": 9.0,
        "enabled": true,
        "results": {},
        "editorSetting": {
          "language": "markdown",
          "editOnDblClick": true,
          "completionKey": "TAB",
          "completionSupport": false
        },
        "editorMode": "ace/mode/markdown",
        "editorHide": true,
        "tableHide": false
      },
      "settings": {
        "params": {},
        "forms": {}
      },
      "results": {
        "code": "SUCCESS",
        "msg": [
          {
            "type": "HTML",
            "data": "\u003cdiv class\u003d\"markdown-body\"\u003e\n\u003ch3\u003e3. Aggregace c.3, ve ktere bude agregovat data ze dvou datasetů najednou, z čehož jeden bude výsledkem předchozí\u003c/h3\u003e\n\u003cp\u003ePoprve, vezmeme jako novy dataframe sloupce \u0026ldquo;uid\u0026rdquo; a \u0026ldquo;genre\u0026rdquo; datasetu z info o anime.\u003cbr/\u003eDale udelame join vysledneho dataframe y predchozi aggregace a dataframe z predchoziho bodu, vezmeme unikatni zaznamy a udelame split a cast v array sloupce, ve kterem se nachazi kolekce nazev ganru.\u003cbr/\u003eDale udelame novy sploupec zanru, udelav rozdeleni pomoci metody explode. Dale udelame grouBy podle zanru, pohlavi a roku narozeni. V aggregaci spocteme strdni hodnoceni podle kategorii pro kazdou skupinu.\u003cbr/\u003eJako vysledek mame dataset, ve kterem se nachazi informace o tom jake prumerne hodnoceni ma kazda zanra od uzivately, seskupine podle roku narozeni a pohlavi.\u003c/p\u003e\n\u003c/div\u003e"
          }
        ]
      },
      "apps": [],
      "jobName": "paragraph_1607095633391_628468712",
      "id": "20201204-152713_351407432",
      "dateCreated": "2020-12-04 15:27:13.391",
      "dateStarted": "2020-12-04 15:35:39.584",
      "dateFinished": "2020-12-04 15:35:39.599",
      "status": "FINISHED",
      "progressUpdateIntervalMs": 500
    },
    {
      "text": "\nval df_anime3 \u003d df_anime.select($\"uid\", $\"genre\")\nval agg3 \u003d  agg2_2.join(df_anime2, df_anime2(\"uid\") \u003d\u003d\u003d agg2_2(\"anime_uid\")).drop(df_anime2(\"uid\")).distinct().withColumn(\"genre\", split(col(\"genre\"), \",\").cast(\"array\u003cstring\u003e\"))\n\nval agg3_1 \u003d agg3.withColumn(\"genre\", explode(agg3(\"genre\"))).groupBy(\"birth_year\", \"gender\", \"genre\").agg(\n    mean(\"total_mean\").as(\"total_mean\"), mean(\"overall_mean\").as(\"overall_mean\"),  mean(\"story_mean\").as(\"story_mean\"),\n    mean(\"animation_mean\").as(\"animation_mean\"),  mean(\"sound_mean\").as(\"sound_mean\"),  mean(\"character_mean\").as(\"character_mean\"),  \n    mean(\"enjoyment_mean\").as(\"enjoyment_mean\")\n).sort(\"birth_year\", \"gender\", \"genre\").distinct()\n\nagg3_1.show()",
      "user": "anonymous",
      "dateUpdated": "2020-11-29 12:33:40.978",
      "config": {
        "colWidth": 12.0,
        "fontSize": 9.0,
        "enabled": true,
        "results": {},
        "editorSetting": {
          "language": "scala",
          "editOnDblClick": false,
          "completionKey": "TAB",
          "completionSupport": true
        },
        "editorMode": "ace/mode/scala"
      },
      "settings": {
        "params": {},
        "forms": {}
      },
      "results": {
        "code": "SUCCESS",
        "msg": [
          {
            "type": "TEXT",
            "data": "+----------+------+------------+-----------------+-----------------+-----------------+-----------------+-----------------+-----------------+-----------------+\n|birth_year|gender|       genre|       total_mean|     overall_mean|       story_mean|   animation_mean|       sound_mean|   character_mean|   enjoyment_mean|\n+----------+------+------------+-----------------+-----------------+-----------------+-----------------+-----------------+-----------------+-----------------+\n|      1930|Female|      Action|7.333333333333333|7.333333333333333|7.428571428571429|7.809523809523809|8.047619047619047|7.238095238095238|7.095238095238095|\n|      1930|Female|   Adventure|7.333333333333333|7.333333333333333|7.777777777777778|              9.0| 8.11111111111111| 8.11111111111111|              7.0|\n|      1930|Female|      Comedy|8.053571428571429|8.053571428571429|8.315476190476192|8.482142857142858|8.244047619047619|7.958333333333334|8.119047619047619|\n|      1930|Female|    Dementia|              9.0|              9.0|             10.0|              8.0|              8.0|              9.0|             10.0|\n|      1930|Female|      Demons|             8.75|             8.75|              9.0|              9.0|             9.25|             9.25|              9.5|\n|      1930|Female|       Drama|7.552631578947368|7.552631578947368|              7.5|8.605263157894736|7.973684210526316|7.605263157894737|7.421052631578948|\n|      1930|Female|       Ecchi|6.666666666666667|6.666666666666667|5.666666666666667|8.666666666666666|8.666666666666666|              7.0|6.333333333333333|\n|      1930|Female|     Fantasy|6.928571428571429|6.928571428571429|6.785714285714286|8.928571428571429|8.071428571428571|7.357142857142857|6.642857142857143|\n|      1930|Female|        Game|9.333333333333334|9.333333333333334|9.333333333333334|              9.0|9.666666666666666|9.333333333333334|9.333333333333334|\n|      1930|Female|       Harem|              5.0|              5.0|              4.5|              8.5|              7.5|              5.5|              5.0|\n|      1930|Female|  Historical|8.428571428571429|8.428571428571429|8.571428571428571|9.285714285714286|              9.0|8.857142857142858|8.428571428571429|\n|      1930|Female|      Horror|7.428571428571429|7.428571428571429|              8.0|7.714285714285714|7.857142857142857|7.142857142857143|8.714285714285714|\n|      1930|Female|       Josei|              7.9|              7.9|              8.7|              8.7|              8.9|              8.3|              7.8|\n|      1930|Female|        Kids|              7.0|              7.0|              7.0|              9.0|              7.0|              5.0|              7.0|\n|      1930|Female|       Magic|7.333333333333333|7.333333333333333|              7.0|              9.0|9.333333333333334|7.333333333333333|              7.0|\n|      1930|Female|Martial Arts|              9.0|              9.0|             9.25|              7.0|              9.0|              7.5|              7.5|\n|      1930|Female|    Military|              3.0|              3.0|              3.0|              7.0|              7.0|              5.0|              2.0|\n|      1930|Female|       Music|              4.5|              4.5|              4.0|              5.5|              5.0|              4.0|              5.0|\n|      1930|Female|     Mystery|8.142857142857142|8.142857142857142|7.857142857142857|8.071428571428571|8.142857142857142|7.928571428571429|8.857142857142858|\n|      1930|Female|      Parody|             10.0|             10.0|             10.0|              9.0|              8.0|             10.0|             10.0|\n+----------+------+------------+-----------------+-----------------+-----------------+-----------------+-----------------+-----------------+-----------------+\nonly showing top 20 rows\n\ndf_anime3: org.apache.spark.sql.DataFrame \u003d [uid: int, genre: string]\nagg3: org.apache.spark.sql.DataFrame \u003d [anime_uid: int, birth_year: int ... 9 more fields]\nagg3_1: org.apache.spark.sql.Dataset[org.apache.spark.sql.Row] \u003d [birth_year: int, gender: string ... 8 more fields]\n"
          }
        ]
      },
      "apps": [],
      "jobName": "paragraph_1606626809165_-982088389",
      "id": "20201129-051329_1930918607",
      "dateCreated": "2020-11-29 05:13:29.165",
      "dateStarted": "2020-11-29 12:33:40.991",
      "dateFinished": "2020-11-29 12:33:51.915",
      "status": "FINISHED",
      "progressUpdateIntervalMs": 500
    },
    {
      "text": "%md\n### 4. Vysledek posledni aggregace ulozime na disk pomoci metody write. Coalesce jsem vyuzil, aby dostal jeden soubor.",
      "user": "anonymous",
      "dateUpdated": "2020-12-04 15:36:46.373",
      "config": {
        "colWidth": 12.0,
        "fontSize": 9.0,
        "enabled": true,
        "results": {},
        "editorSetting": {
          "language": "markdown",
          "editOnDblClick": true,
          "completionKey": "TAB",
          "completionSupport": false
        },
        "editorMode": "ace/mode/markdown",
        "editorHide": true,
        "tableHide": false
      },
      "settings": {
        "params": {},
        "forms": {}
      },
      "results": {
        "code": "SUCCESS",
        "msg": [
          {
            "type": "HTML",
            "data": "\u003cdiv class\u003d\"markdown-body\"\u003e\n\u003ch3\u003e4. Vysledek posledni aggregace ulozime na disk pomoci metody write. Coalesce jsem vyuzil, aby dostal jeden soubor.\u003c/h3\u003e\n\u003c/div\u003e"
          }
        ]
      },
      "apps": [],
      "jobName": "paragraph_1607096147057_-1488052906",
      "id": "20201204-153547_251685238",
      "dateCreated": "2020-12-04 15:35:47.057",
      "dateStarted": "2020-12-04 15:36:46.372",
      "dateFinished": "2020-12-04 15:36:46.383",
      "status": "FINISHED",
      "progressUpdateIntervalMs": 500
    },
    {
      "text": "agg3_1.coalesce(1).write.format(\"csv\")\n  .option(\"sep\", \",\")\n  .option(\"header\", \"true\")\n  .save(\"year_gender_genre\")",
      "user": "anonymous",
      "dateUpdated": "2020-11-29 12:37:31.481",
      "config": {
        "colWidth": 12.0,
        "fontSize": 9.0,
        "enabled": true,
        "results": {},
        "editorSetting": {
          "language": "scala",
          "editOnDblClick": false,
          "completionKey": "TAB",
          "completionSupport": true
        },
        "editorMode": "ace/mode/scala"
      },
      "settings": {
        "params": {},
        "forms": {}
      },
      "results": {
        "code": "SUCCESS",
        "msg": []
      },
      "apps": [],
      "jobName": "paragraph_1606648362050_-1903205100",
      "id": "20201129-111242_2065274410",
      "dateCreated": "2020-11-29 11:12:42.050",
      "dateStarted": "2020-11-29 12:37:31.495",
      "dateFinished": "2020-11-29 12:37:45.027",
      "status": "FINISHED",
      "progressUpdateIntervalMs": 500
    },
    {
      "user": "anonymous",
      "config": {},
      "settings": {
        "params": {},
        "forms": {}
      },
      "apps": [],
      "jobName": "paragraph_1606653203289_-2012617316",
      "id": "20201129-123323_1252667605",
      "dateCreated": "2020-11-29 12:33:23.289",
      "status": "READY",
      "progressUpdateIntervalMs": 500
    }
  ],
  "name": "work",
  "id": "2FQTWR2PT",
  "noteParams": {},
  "noteForms": {},
  "angularObjects": {
    "spark:shared_process": []
  },
  "config": {
    "isZeppelinNotebookCronEnable": false
  },
  "info": {}
}